{
	"postStudentExam": {
		"CouldNotSaveSolution":  "Could not save solution",
		"CouldNotTurnInExam":    "Could not turn in exam",
		"SaveSuccess":           "Your answers have been saved",
		"ExamHandedIn":          "Your exam has been handed in",
		"Grade":                 "Grade",
		"FinalGradeWillAppear":  "Final grade will appear when grading is finished",
		"YourGradeWillAppearAt": "Your grade will appear",
		"DidntHandInExam":       "You did not hand in this exam",
		"Of":                    "of",
		"WhenXHasBeenGraded":    "when {{ratio}}% of the exam have been graded"
	},
	"answerExam": {
		"Description":           "Description",
		"ExamDeadline":          "Exam deadline ",
		"MinutesAllowed":        "Minutes allowed: ",
		"SubmitExam":            "Submit exam",
		"DeadlinePassed":        "The deadline has passed",
		"GetExamError":          "Error occured when trying to get this exam"
	},
	"warningDialogExam": {
		"ShowMessage":       "You did not answer all questions. Do you want to submit your exam anyway?"
	}
}