{
	"BooksIntroCourse": {
		"Book":                  "Here you can see every book for this class. Notice that the required books have an exclamation mark infront of them.",
		"BooksInformation":      "Here you can see more information on a chosen book."
	}
}