{
	"bookincourse":{
		"AddingBook":           "Adding book to course",
		"EditingBook":          "Edit book",
		"Title":                "Title",
		"Authors":              "Authors",
		"Release":              "Release",
		"Published":            "Published",
		"Publisher":            "Publisher",
		"Required":             "Required",
		"Memo":                 "Memo",
		"Input":                "Characters left",
		"AddSuccessMessage":    "The book has been added to the course",
		"EditSuccessMessage":   "The book has been updated",
		"AddErrorMessage":      "Oops, something went wrong, book was not added to the course",
		"EditErrorMessage":     "Oops, something went wrong, book was not updated",
		"MissingTitle":         "Title is missing",
		"Edit":                 "Edit",
		"Add":                  "Add"
	}
}