{
	"onlineExams": {
		"Title":                 "Netpróf",
		"OnlineExam":            "Netpróf",
		"Name":                  "Nafn",
		"View":                  "Skoða",
		"UserView":              "Notendasýn",
		"Status":                "Staða",
		"Start":                 "Opnar",
		"Created":               "Búið til",
		"End":                   "Lokar",
		"Participation":         "Þátttaka",
		"Score":                 "Meðaleinkunn",
		"Stats":                 "Tölfræði",
		"Config":                "Aðgerðir",
		"NotStarted":            "Ekki hafið",
		"Ongoing":               "Í gangi",
		"Closed":                "Lokið",
		"Templates":             "Sniðmát",
		"Questions":             "Spurningar",
		"Serve":                 "Leggja fyrir",
		"Edit":                  "Breyta",
		"Copy":                  "Afrita",
		"Delete":                "Eyða",
		"Restart":               "Endurræsa",
		"NumOfQuestions":        "Fjöldi spurninga",
		"QuestionWeightTotal":   "Samtals vægi",
		"CreateDate":            "Búið til",
		"Of":                    "af",
		"AddTemplate":           "Bæta við sniðmáti",
		"NoExams":               "Engin próf hafa verið lögð fyrir í þessum áfanga",
		"NoTemplates":           "Engin sniðmát hafa verið búin til í þessum áfanga",
		"DeleteSuccessMessage":  "Sniðmáti hefur verið eytt",
		"DeleteErrorMessage":    "Eitthvað fór úrskeiðis, ekki var hægt að eyða sniðmátinu",
		"UndoSuccess":           "Afturköllun tókst",
		"StudentAnswer":         "<- Svar nemenda",
		"CorrectAnswer":         "Rétt svar",
		"StudentsAnswer":        "Svar nemanda",
		"Comments":              "Athugasemdir kennara",
		"Points":                "Stig:",
		"GiveCorrectFor":        "Gefa rétt fyrir:",
		"GiveCorrect":           "Gefa rétt fyrir allt",
		"NotSuccessfull":        "Aðgerð heppnaðist ekki",
		"AllGradesChanged":      "Gefið hefur verið rétt fyrir spurningu",
		"GradeCommentAdded":     "Athugasemd og stig vistuð",
		"GradeCommentFailed":    "Ekki tókst að vista",
		"Back":                  "Til baka",
		"Submit":                "Vista"
	}
}